﻿// © 2016 and later: Unicode, Inc. and others.
// License & terms of use: http://www.unicode.org/copyright.html#License
nl{
    Version{"2.1.41.97"}
    zoneStrings{
        "Etc:UTC"{
            ls{"Gecoördineerde wereldtijd"}
        }
        "Europe:Dublin"{
            ld{"Ierse standaardtijd"}
        }
        "Europe:London"{
            ld{"Britse zomertijd"}
        }
        "Pacific:Honolulu"{
            sd{"HDT"}
            sg{"HST"}
            ss{"HST"}
        }
        "meta:Acre"{
            ld{"Acre-zomertijd"}
            lg{"Acre-tijd"}
            ls{"Acre-standaardtijd"}
        }
        "meta:Afghanistan"{
            ls{"Afghaanse tijd"}
        }
        "meta:Africa_Central"{
            ls{"Centraal-Afrikaanse tijd"}
        }
        "meta:Africa_Eastern"{
            ls{"Oost-Afrikaanse tijd"}
        }
        "meta:Africa_Southern"{
            ls{"Zuid-Afrikaanse tijd"}
        }
        "meta:Africa_Western"{
            ld{"West-Afrikaanse zomertijd"}
            lg{"West-Afrikaanse tijd"}
            ls{"West-Afrikaanse standaardtijd"}
        }
        "meta:Alaska"{
            ld{"Alaska-zomertijd"}
            lg{"Alaska-tijd"}
            ls{"Alaska-standaardtijd"}
        }
        "meta:Almaty"{
            ld{"Alma-Ata-zomertijd"}
            lg{"Alma-Ata-tijd"}
            ls{"Alma-Ata-standaardtijd"}
        }
        "meta:Amazon"{
            ld{"Amazone-zomertijd"}
            lg{"Amazone-tijd"}
            ls{"Amazone-standaardtijd"}
        }
        "meta:America_Central"{
            ld{"Central-zomertijd"}
            lg{"Central-tijd"}
            ls{"Central-standaardtijd"}
        }
        "meta:America_Eastern"{
            ld{"Eastern-zomertijd"}
            lg{"Eastern-tijd"}
            ls{"Eastern-standaardtijd"}
        }
        "meta:America_Mountain"{
            ld{"Mountain-zomertijd"}
            lg{"Mountain-tijd"}
            ls{"Mountain-standaardtijd"}
        }
        "meta:America_Pacific"{
            ld{"Pacific-zomertijd"}
            lg{"Pacific-tijd"}
            ls{"Pacific-standaardtijd"}
        }
        "meta:Anadyr"{
            ld{"Anadyr-zomertijd"}
            lg{"Anadyr-tijd"}
            ls{"Anadyr-standaardtijd"}
        }
        "meta:Apia"{
            ld{"Apia-zomertijd"}
            lg{"Apia-tijd"}
            ls{"Apia-standaardtijd"}
        }
        "meta:Aqtau"{
            ld{"Aqtau-zomertijd"}
            lg{"Aqtau-tijd"}
            ls{"Aqtau-standaardtijd"}
        }
        "meta:Aqtobe"{
            ld{"Aqtöbe-zomertijd"}
            lg{"Aqtöbe-tijd"}
            ls{"Aqtöbe-standaardtijd"}
        }
        "meta:Arabian"{
            ld{"Arabische zomertijd"}
            lg{"Arabische tijd"}
            ls{"Arabische standaardtijd"}
        }
        "meta:Argentina"{
            ld{"Argentijnse zomertijd"}
            lg{"Argentijnse tijd"}
            ls{"Argentijnse standaardtijd"}
        }
        "meta:Argentina_Western"{
            ld{"West-Argentijnse zomertijd"}
            lg{"West-Argentijnse tijd"}
            ls{"West-Argentijnse standaardtijd"}
        }
        "meta:Armenia"{
            ld{"Armeense zomertijd"}
            lg{"Armeense tijd"}
            ls{"Armeense standaardtijd"}
        }
        "meta:Atlantic"{
            ld{"Atlantic-zomertijd"}
            lg{"Atlantic-tijd"}
            ls{"Atlantic-standaardtijd"}
        }
        "meta:Australia_Central"{
            ld{"Midden-Australische zomertijd"}
            lg{"Midden-Australische tijd"}
            ls{"Midden-Australische standaardtijd"}
        }
        "meta:Australia_CentralWestern"{
            ld{"Midden-Australische westelijke zomertijd"}
            lg{"Midden-Australische westelijke tijd"}
            ls{"Midden-Australische westelijke standaardtijd"}
        }
        "meta:Australia_Eastern"{
            ld{"Oost-Australische zomertijd"}
            lg{"Oost-Australische tijd"}
            ls{"Oost-Australische standaardtijd"}
        }
        "meta:Australia_Western"{
            ld{"West-Australische zomertijd"}
            lg{"West-Australische tijd"}
            ls{"West-Australische standaardtijd"}
        }
        "meta:Azerbaijan"{
            ld{"Azerbeidzjaanse zomertijd"}
            lg{"Azerbeidzjaanse tijd"}
            ls{"Azerbeidzjaanse standaardtijd"}
        }
        "meta:Azores"{
            ld{"Azoren-zomertijd"}
            lg{"Azoren-tijd"}
            ls{"Azoren-standaardtijd"}
        }
        "meta:Bangladesh"{
            ld{"Bengalese zomertijd"}
            lg{"Bengalese tijd"}
            ls{"Bengalese standaardtijd"}
        }
        "meta:Bhutan"{
            ls{"Bhutaanse tijd"}
        }
        "meta:Bolivia"{
            ls{"Boliviaanse tijd"}
        }
        "meta:Brasilia"{
            ld{"Braziliaanse zomertijd"}
            lg{"Braziliaanse tijd"}
            ls{"Braziliaanse standaardtijd"}
        }
        "meta:Brunei"{
            ls{"Bruneise tijd"}
        }
        "meta:Cape_Verde"{
            ld{"Kaapverdische zomertijd"}
            lg{"Kaapverdische tijd"}
            ls{"Kaapverdische standaardtijd"}
        }
        "meta:Casey"{
            ls{"Casey tijd"}
        }
        "meta:Chamorro"{
            ls{"Chamorro-tijd"}
        }
        "meta:Chatham"{
            ld{"Chatham-zomertijd"}
            lg{"Chatham-tijd"}
            ls{"Chatham-standaardtijd"}
        }
        "meta:Chile"{
            ld{"Chileense zomertijd"}
            lg{"Chileense tijd"}
            ls{"Chileense standaardtijd"}
        }
        "meta:China"{
            ld{"Chinese zomertijd"}
            lg{"Chinese tijd"}
            ls{"Chinese standaardtijd"}
        }
        "meta:Choibalsan"{
            ld{"Tsjojbalsan-zomertijd"}
            lg{"Tsjojbalsan-tijd"}
            ls{"Tsjojbalsan-standaardtijd"}
        }
        "meta:Christmas"{
            ls{"Christmaseilandse tijd"}
        }
        "meta:Cocos"{
            ls{"Cocoseilandse tijd"}
        }
        "meta:Colombia"{
            ld{"Colombiaanse zomertijd"}
            lg{"Colombiaanse tijd"}
            ls{"Colombiaanse standaardtijd"}
        }
        "meta:Cook"{
            ld{"Cookeilandse halve zomertijd"}
            lg{"Cookeilandse tijd"}
            ls{"Cookeilandse standaardtijd"}
        }
        "meta:Cuba"{
            ld{"Cubaanse zomertijd"}
            lg{"Cubaanse tijd"}
            ls{"Cubaanse standaardtijd"}
        }
        "meta:Davis"{
            ls{"Davis-tijd"}
        }
        "meta:DumontDUrville"{
            ls{"Dumont-d’Urville-tijd"}
        }
        "meta:East_Timor"{
            ls{"Oost-Timorese tijd"}
        }
        "meta:Easter"{
            ld{"Paaseilandse zomertijd"}
            lg{"Paaseilandse tijd"}
            ls{"Paaseilandse standaardtijd"}
        }
        "meta:Ecuador"{
            ls{"Ecuadoraanse tijd"}
        }
        "meta:Europe_Central"{
            ld{"Midden-Europese zomertijd"}
            lg{"Midden-Europese tijd"}
            ls{"Midden-Europese standaardtijd"}
            sd{"CEST"}
            sg{"CET"}
            ss{"CET"}
        }
        "meta:Europe_Eastern"{
            ld{"Oost-Europese zomertijd"}
            lg{"Oost-Europese tijd"}
            ls{"Oost-Europese standaardtijd"}
            sd{"EEST"}
            sg{"EET"}
            ss{"EET"}
        }
        "meta:Europe_Further_Eastern"{
            ls{"Verder-oostelijk-Europese tijd"}
        }
        "meta:Europe_Western"{
            ld{"West-Europese zomertijd"}
            lg{"West-Europese tijd"}
            ls{"West-Europese standaardtijd"}
            sd{"WEST"}
            sg{"WET"}
            ss{"WET"}
        }
        "meta:Falkland"{
            ld{"Falklandeilandse zomertijd"}
            lg{"Falklandeilandse tijd"}
            ls{"Falklandeilandse standaardtijd"}
        }
        "meta:Fiji"{
            ld{"Fijische zomertijd"}
            lg{"Fijische tijd"}
            ls{"Fijische standaardtijd"}
        }
        "meta:French_Guiana"{
            ls{"Frans-Guyaanse tijd"}
        }
        "meta:French_Southern"{
            ls{"Franse zuidelijke en Antarctische tijd"}
        }
        "meta:GMT"{
            ls{"Greenwich Mean Time"}
        }
        "meta:Galapagos"{
            ls{"Galapagoseilandse standaardtijd"}
        }
        "meta:Gambier"{
            ls{"Gambiereilandse tijd"}
        }
        "meta:Georgia"{
            ld{"Georgische zomertijd"}
            lg{"Georgische tijd"}
            ls{"Georgische standaardtijd"}
        }
        "meta:Gilbert_Islands"{
            ls{"Gilberteilandse tijd"}
        }
        "meta:Greenland_Eastern"{
            ld{"Oost-Groenlandse zomertijd"}
            lg{"Oost-Groenlandse tijd"}
            ls{"Oost-Groenlandse standaardtijd"}
        }
        "meta:Greenland_Western"{
            ld{"West-Groenlandse zomertijd"}
            lg{"West-Groenlandse tijd"}
            ls{"West-Groenlandse standaardtijd"}
        }
        "meta:Guam"{
            ls{"Guamese standaardtijd"}
        }
        "meta:Gulf"{
            ls{"Golf-standaardtijd"}
        }
        "meta:Guyana"{
            ls{"Guyaanse tijd"}
        }
        "meta:Hawaii_Aleutian"{
            ld{"Hawaii-Aleoetische zomertijd"}
            lg{"Hawaii-Aleoetische tijd"}
            ls{"Hawaii-Aleoetische standaardtijd"}
        }
        "meta:Hong_Kong"{
            ld{"Hongkongse zomertijd"}
            lg{"Hongkongse tijd"}
            ls{"Hongkongse standaardtijd"}
        }
        "meta:Hovd"{
            ld{"Hovd-zomertijd"}
            lg{"Hovd-tijd"}
            ls{"Hovd-standaardtijd"}
        }
        "meta:India"{
            ls{"Indiase tijd"}
        }
        "meta:Indian_Ocean"{
            ls{"Indische Oceaan-tijd"}
        }
        "meta:Indochina"{
            ls{"Indochinese tijd"}
        }
        "meta:Indonesia_Central"{
            ls{"Centraal-Indonesische tijd"}
        }
        "meta:Indonesia_Eastern"{
            ls{"Oost-Indonesische tijd"}
        }
        "meta:Indonesia_Western"{
            ls{"West-Indonesische tijd"}
        }
        "meta:Iran"{
            ld{"Iraanse zomertijd"}
            lg{"Iraanse tijd"}
            ls{"Iraanse standaardtijd"}
        }
        "meta:Irkutsk"{
            ld{"Irkoetsk-zomertijd"}
            lg{"Irkoetsk-tijd"}
            ls{"Irkoetsk-standaardtijd"}
        }
        "meta:Israel"{
            ld{"Israëlische zomertijd"}
            lg{"Israëlische tijd"}
            ls{"Israëlische standaardtijd"}
        }
        "meta:Japan"{
            ld{"Japanse zomertijd"}
            lg{"Japanse tijd"}
            ls{"Japanse standaardtijd"}
        }
        "meta:Kamchatka"{
            ld{"Petropavlovsk-Kamtsjatski-zomertijd"}
            lg{"Petropavlovsk-Kamtsjatski-tijd"}
            ls{"Petropavlovsk-Kamtsjatski-standaardtijd"}
        }
        "meta:Kazakhstan_Eastern"{
            ls{"Oost-Kazachse tijd"}
        }
        "meta:Kazakhstan_Western"{
            ls{"West-Kazachse tijd"}
        }
        "meta:Korea"{
            ld{"Koreaanse zomertijd"}
            lg{"Koreaanse tijd"}
            ls{"Koreaanse standaardtijd"}
        }
        "meta:Kosrae"{
            ls{"Kosraese tijd"}
        }
        "meta:Krasnoyarsk"{
            ld{"Krasnojarsk-zomertijd"}
            lg{"Krasnojarsk-tijd"}
            ls{"Krasnojarsk-standaardtijd"}
        }
        "meta:Kyrgystan"{
            ls{"Kirgizische tijd"}
        }
        "meta:Lanka"{
            ls{"Lanka-tijd"}
        }
        "meta:Line_Islands"{
            ls{"Line-eilandse tijd"}
        }
        "meta:Lord_Howe"{
            ld{"Lord Howe-eilandse zomertijd"}
            lg{"Lord Howe-eilandse tijd"}
            ls{"Lord Howe-eilandse standaardtijd"}
        }
        "meta:Macau"{
            ld{"Macause zomertijd"}
            lg{"Macause tijd"}
            ls{"Macause standaardtijd"}
        }
        "meta:Macquarie"{
            ls{"Macquarie-eilandse tijd"}
        }
        "meta:Magadan"{
            ld{"Magadan-zomertijd"}
            lg{"Magadan-tijd"}
            ls{"Magadan-standaardtijd"}
        }
        "meta:Malaysia"{
            ls{"Maleisische tijd"}
        }
        "meta:Maldives"{
            ls{"Maldivische tijd"}
        }
        "meta:Marquesas"{
            ls{"Marquesaseilandse tijd"}
        }
        "meta:Marshall_Islands"{
            ls{"Marshalleilandse tijd"}
        }
        "meta:Mauritius"{
            ld{"Mauritiaanse zomertijd"}
            lg{"Mauritiaanse tijd"}
            ls{"Mauritiaanse standaardtijd"}
        }
        "meta:Mawson"{
            ls{"Mawson-tijd"}
        }
        "meta:Mexico_Northwest"{
            ld{"Noordwest-Mexicaanse zomertijd"}
            lg{"Noordwest-Mexicaanse tijd"}
            ls{"Noordwest-Mexicaanse standaardtijd"}
        }
        "meta:Mexico_Pacific"{
            ld{"Mexicaanse Pacific-zomertijd"}
            lg{"Mexicaanse Pacific-tijd"}
            ls{"Mexicaanse Pacific-standaardtijd"}
        }
        "meta:Mongolia"{
            ld{"Ulaanbaatar-zomertijd"}
            lg{"Ulaanbaatar-tijd"}
            ls{"Ulaanbaatar-standaardtijd"}
        }
        "meta:Moscow"{
            ld{"Moskou-zomertijd"}
            lg{"Moskou-tijd"}
            ls{"Moskou-standaardtijd"}
        }
        "meta:Myanmar"{
            ls{"Myanmarese tijd"}
        }
        "meta:Nauru"{
            ls{"Nauruaanse tijd"}
        }
        "meta:Nepal"{
            ls{"Nepalese tijd"}
        }
        "meta:New_Caledonia"{
            ld{"Nieuw-Caledonische zomertijd"}
            lg{"Nieuw-Caledonische tijd"}
            ls{"Nieuw-Caledonische standaardtijd"}
        }
        "meta:New_Zealand"{
            ld{"Nieuw-Zeelandse zomertijd"}
            lg{"Nieuw-Zeelandse tijd"}
            ls{"Nieuw-Zeelandse standaardtijd"}
        }
        "meta:Newfoundland"{
            ld{"Newfoundland-zomertijd"}
            lg{"Newfoundland-tijd"}
            ls{"Newfoundland-standaardtijd"}
        }
        "meta:Niue"{
            ls{"Niuese tijd"}
        }
        "meta:Norfolk"{
            ls{"Norfolkeilandse tijd"}
        }
        "meta:Noronha"{
            ld{"Fernando de Noronha-zomertijd"}
            lg{"Fernando de Noronha-tijd"}
            ls{"Fernando de Noronha-standaardtijd"}
        }
        "meta:North_Mariana"{
            ls{"Noordelijk Mariaanse tijd"}
        }
        "meta:Novosibirsk"{
            ld{"Novosibirsk-zomertijd"}
            lg{"Novosibirsk-tijd"}
            ls{"Novosibirsk-standaardtijd"}
        }
        "meta:Omsk"{
            ld{"Omsk-zomertijd"}
            lg{"Omsk-tijd"}
            ls{"Omsk-standaardtijd"}
        }
        "meta:Pakistan"{
            ld{"Pakistaanse zomertijd"}
            lg{"Pakistaanse tijd"}
            ls{"Pakistaanse standaardtijd"}
        }
        "meta:Palau"{
            ls{"Belause tijd"}
        }
        "meta:Papua_New_Guinea"{
            ls{"Papoea-Nieuw-Guineese tijd"}
        }
        "meta:Paraguay"{
            ld{"Paraguayaanse zomertijd"}
            lg{"Paraguayaanse tijd"}
            ls{"Paraguayaanse standaardtijd"}
        }
        "meta:Peru"{
            ld{"Peruaanse zomertijd"}
            lg{"Peruaanse tijd"}
            ls{"Peruaanse standaardtijd"}
        }
        "meta:Philippines"{
            ld{"Filipijnse zomertijd"}
            lg{"Filipijnse tijd"}
            ls{"Filipijnse standaardtijd"}
        }
        "meta:Phoenix_Islands"{
            ls{"Phoenixeilandse tijd"}
        }
        "meta:Pierre_Miquelon"{
            ld{"Saint Pierre en Miquelon-zomertijd"}
            lg{"Saint Pierre en Miquelon-tijd"}
            ls{"Saint Pierre en Miquelon-standaardtijd"}
        }
        "meta:Pitcairn"{
            ls{"Pitcairneilandse tijd"}
        }
        "meta:Ponape"{
            ls{"Pohnpei-tijd"}
        }
        "meta:Pyongyang"{
            ls{"Pyongyang-tijd"}
        }
        "meta:Qyzylorda"{
            ld{"Qyzylorda-zomertijd"}
            lg{"Qyzylorda-tijd"}
            ls{"Qyzylorda-standaardtijd"}
        }
        "meta:Reunion"{
            ls{"Réunionse tijd"}
        }
        "meta:Rothera"{
            ls{"Rothera-tijd"}
        }
        "meta:Sakhalin"{
            ld{"Sachalin-zomertijd"}
            lg{"Sachalin-tijd"}
            ls{"Sachalin-standaardtijd"}
        }
        "meta:Samara"{
            ld{"Samara-zomertijd"}
            lg{"Samara-tijd"}
            ls{"Samara-standaardtijd"}
        }
        "meta:Samoa"{
            ld{"Samoaanse zomertijd"}
            lg{"Samoaanse tijd"}
            ls{"Samoaanse standaardtijd"}
        }
        "meta:Seychelles"{
            ls{"Seychelse tijd"}
        }
        "meta:Singapore"{
            ls{"Singaporese standaardtijd"}
        }
        "meta:Solomon"{
            ls{"Salomonseilandse tijd"}
        }
        "meta:South_Georgia"{
            ls{"Zuid-Georgische tijd"}
        }
        "meta:Suriname"{
            ls{"Surinaamse tijd"}
        }
        "meta:Syowa"{
            ls{"Syowa-tijd"}
        }
        "meta:Tahiti"{
            ls{"Tahitiaanse tijd"}
        }
        "meta:Taipei"{
            ld{"Taipei-zomertijd"}
            lg{"Taipei-tijd"}
            ls{"Taipei-standaardtijd"}
        }
        "meta:Tajikistan"{
            ls{"Tadzjiekse tijd"}
        }
        "meta:Tokelau"{
            ls{"Tokelau-eilandse tijd"}
        }
        "meta:Tonga"{
            ld{"Tongaanse zomertijd"}
            lg{"Tongaanse tijd"}
            ls{"Tongaanse standaardtijd"}
        }
        "meta:Truk"{
            ls{"Chuukse tijd"}
        }
        "meta:Turkmenistan"{
            ld{"Turkmeense zomertijd"}
            lg{"Turkmeense tijd"}
            ls{"Turkmeense standaardtijd"}
        }
        "meta:Tuvalu"{
            ls{"Tuvaluaanse tijd"}
        }
        "meta:Uruguay"{
            ld{"Uruguayaanse zomertijd"}
            lg{"Uruguayaanse tijd"}
            ls{"Uruguayaanse standaardtijd"}
        }
        "meta:Uzbekistan"{
            ld{"Oezbeekse zomertijd"}
            lg{"Oezbeekse tijd"}
            ls{"Oezbeekse standaardtijd"}
        }
        "meta:Vanuatu"{
            ld{"Vanuatuaanse zomertijd"}
            lg{"Vanuatuaanse tijd"}
            ls{"Vanuatuaanse standaardtijd"}
        }
        "meta:Venezuela"{
            ls{"Venezolaanse tijd"}
        }
        "meta:Vladivostok"{
            ld{"Vladivostok-zomertijd"}
            lg{"Vladivostok-tijd"}
            ls{"Vladivostok-standaardtijd"}
        }
        "meta:Volgograd"{
            ld{"Wolgograd-zomertijd"}
            lg{"Wolgograd-tijd"}
            ls{"Wolgograd-standaardtijd"}
        }
        "meta:Vostok"{
            ls{"Vostok-tijd"}
        }
        "meta:Wake"{
            ls{"Wake-eilandse tijd"}
        }
        "meta:Wallis"{
            ls{"Wallis en Futunase tijd"}
        }
        "meta:Yakutsk"{
            ld{"Jakoetsk-zomertijd"}
            lg{"Jakoetsk-tijd"}
            ls{"Jakoetsk-standaardtijd"}
        }
        "meta:Yekaterinburg"{
            ld{"Jekaterinenburg-zomertijd"}
            lg{"Jekaterinenburg-tijd"}
            ls{"Jekaterinenburg-standaardtijd"}
        }
        fallbackFormat{"{1} ({0})"}
        gmtFormat{"GMT{0}"}
        gmtZeroFormat{"GMT"}
        hourFormat{"+HH:mm;-HH:mm"}
        regionFormat{"{0}-tijd"}
        regionFormatDaylight{"zomertijd {0}"}
        regionFormatStandard{"standaardtijd {0}"}
    }
}
